module dag_analyzer

go 1.17

require (
	github.com/fatih/color v1.16.0 // indirect
	github.com/mattn/go-colorable v0.1.13 // indirect
	github.com/mattn/go-isatty v0.0.20 // indirect
	github.com/mitchellh/colorstring v0.0.0-20190213212951-d06e56a500db // indirect
	github.com/rivo/uniseg v0.4.7 // indirect
	github.com/schollz/progressbar/v3 v3.14.2 // indirect
	golang.org/x/sys v0.17.0 // indirect
	golang.org/x/term v0.17.0 // indirect
)
